…
```r
deserts
```

```
## # A tibble: 34,786 x 13
##    record_id month   day  year plot_id species_id sex   hindfoot_length weight
##        <dbl> <dbl> <dbl> <dbl>   <dbl> <chr>      <chr>           <dbl>  <dbl>
##  1         1     7    16  1977       2 NL         M                  32     NA
##  2         2     7    16  1977       3 NL         M                  33     NA
##  3         3     7    16  1977       2 DM         F                  37     NA
##  4         4     7    16  1977       7 DM         M                  36     NA
##  5         5     7    16  1977       3 DM         M                  35     NA
##  6         6     7    16  1977       1 PF         M                  14     NA
##  7         7     7    16  1977       2 PE         F                  NA     NA
##  8         8     7    16  1977       1 DM         M                  37     NA
##  9         9     7    16  1977       1 DM         F                  34     NA
## 10        10     7    16  1977       6 PF         F                  20     NA
## # ... with 34,776 more rows, and 4 more variables: genus <chr>, species <chr>,
## #   taxa <chr>, plot_type <chr>
```
…
```
## # A tibble: 1 x 3
##   total_genus total_species total_observations
##         <int>         <int>              <int>
## 1          26            40              34786
```

```r
deserts %>%
  count(species) %>%
  arrange(desc(n))
```

```
## # A tibble: 40 x 2
##    species          n
##    <chr>        <int>
##  1 merriami     10596
##  2 penicillatus  3123
##  3 ordii         3027
##  4 baileyi       2891
##  5 megalotis     2609
##  6 spectabilis   2504
##  7 torridus      2249
##  8 flavus        1597
##  9 eremicus      1299
## 10 albigula      1252
## # ... with 30 more rows
```
Merriami is the most frequently sampled in the study with a total of 10,596 observations.

```r
deserts %>%
  count(species) %>%
  arrange(n)
```

```
## # A tibble: 40 x 2
##    species          n
##    <chr>        <int>
##  1 clarki           1
##  2 scutalatus       1
##  3 tereticaudus     1
##  4 tigris           1
##  5 uniparens        1
##  6 viridis          1
##  7 leucophrys       2
##  8 savannarum       2
##  9 fuscus           5
## 10 undulatus        5
## # ... with 30 more rows
```
…
5. What is the range of weight for each species included in the study? Remove any observations of weight that are NA so they do not show up in the plot.

```r
deserts %>%
  group_by(species) %>%
  summarise(min_weight = min(weight, na.rm=T),
            max_weight = max(weight, na.rm=T),
            mean_weight = mean(weight, na.rm=T),
            median_weight = median(weight, na.rm=T),
            n=n())
```

```
## # A tibble: 40 x 6
##    species         min_weight max_weight mean_weight median_weight     n
##  * <chr>                <dbl>      <dbl>       <dbl>         <dbl> <int>
##  1 albigula                30        280      159.             164  1252
##  2 audubonii              Inf       -Inf      NaN               NA    75
##  3 baileyi                 12         55       31.7             31  2891
##  4 bilineata              Inf       -Inf      NaN               NA   303
##  5 brunneicapillus        Inf       -Inf      NaN               NA    50
##  6 chlorurus              Inf       -Inf      NaN               NA    39
##  7 clarki                 Inf       -Inf      NaN               NA     1
##  8 eremicus                 8         40       21.6             22  1299
##  9 flavus                   4         25        7.92             8  1597
## 10 fulvescens               9         20       13.4             13    75
## # ... with 30 more rows
```
…
6. Add another layer to your answer from #4 using `geom_point` to get an idea of how many measurements were taken for each species.

```r
deserts%>%
  filter(weight!="NA")%>%
  group_by(species) %>%
  summarise(total_weight_measurements = n_distinct(record_id))
```

```
## # A tibble: 22 x 2
##    species     total_weight_measurements
##  * <chr>                           <int>
##  1 albigula                         1152
##  2 baileyi                          2810
##  3 eremicus                         1260
##  4 flavus                           1548
##  5 fulvescens                         75
##  6 fulviventer                        41
##  7 hispidus                          172
##  8 intermedius                         8
##  9 leucogaster                       970
## 10 leucopus                           36
## # ... with 12 more rows
```
…
7. [Dipodomys merriami](https://en.wikipedia.org/wiki/Merriam's_kangaroo_rat) is the most frequently sampled animal in the study. How have the number of observations of this species changed over the years included in the study?

```r
deserts %>%
  filter(species == "merriami") %>%
  count(species, year) %>%
  select(year, n)
```

```
## # A tibble: 26 x 2
##     year     n
##    <dbl> <int>
##  1  1977   264
##  2  1978   389
##  3  1979   209
##  4  1980   493
##  5  1981   559
##  6  1982   609
##  7  1983   528
##  8  1984   396
##  9  1985   667
## 10  1986   406
## # ... with 16 more rows
```
…
There is no distinguishable relationship between the two variables due to over plotting.

9. Which two species have, on average, the highest weight? Once you have identified them, make a new column that is a ratio of `weight` to `hindfoot_length`. Make a plot that shows the range of this new ratio and fill by sex.

```r
deserts %>%
  group_by(species) %>%
  summarise(avg_weight = mean(weight, na.rm=T)) %>%
  arrange(desc(avg_weight))
```

```
## # A tibble: 40 x 2
##    species      avg_weight
##    <chr>             <dbl>
##  1 albigula          159. 
##  2 spectabilis       120. 
##  3 spilosoma          93.5
##  4 hispidus           65.6
##  5 fulviventer        58.9
##  6 ochrognathus       55.4
##  7 ordii              48.9
##  8 merriami           43.2
##  9 baileyi            31.7
## 10 leucogaster        31.6
## # ... with 30 more rows
```
…
