…
```r
gapminder
```

```
## # A tibble: 1,704 x 6
##    country     continent  year lifeExp      pop gdpPercap
##    <fct>       <fct>     <int>   <dbl>    <int>     <dbl>
##  1 Afghanistan Asia       1952    28.8  8425333      779.
##  2 Afghanistan Asia       1957    30.3  9240934      821.
##  3 Afghanistan Asia       1962    32.0 10267083      853.
##  4 Afghanistan Asia       1967    34.0 11537966      836.
##  5 Afghanistan Asia       1972    36.1 13079460      740.
##  6 Afghanistan Asia       1977    38.4 14880372      786.
##  7 Afghanistan Asia       1982    39.9 12881816      978.
##  8 Afghanistan Asia       1987    40.8 13867957      852.
##  9 Afghanistan Asia       1992    41.7 16317921      649.
## 10 Afghanistan Asia       1997    41.8 22227415      635.
## # … with 1,694 more rows
```
After going through the data set, NA's do not appear to be represented by values. The naniar function did not find any NA's represented by "NA", so we can assume that this data is complete.

```r
gapminder <- janitor::clean_names(gapminder)
gapminder
```

```
## # A tibble: 1,704 x 6
##    country     continent  year life_exp      pop gdp_percap
##    <fct>       <fct>     <int>    <dbl>    <int>      <dbl>
##  1 Afghanistan Asia       1952     28.8  8425333       779.
##  2 Afghanistan Asia       1957     30.3  9240934       821.
##  3 Afghanistan Asia       1962     32.0 10267083       853.
##  4 Afghanistan Asia       1967     34.0 11537966       836.
##  5 Afghanistan Asia       1972     36.1 13079460       740.
##  6 Afghanistan Asia       1977     38.4 14880372       786.
##  7 Afghanistan Asia       1982     39.9 12881816       978.
##  8 Afghanistan Asia       1987     40.8 13867957       852.
##  9 Afghanistan Asia       1992     41.7 16317921       649.
## 10 Afghanistan Asia       1997     41.8 22227415       635.
## # … with 1,694 more rows
```
…
```r
gapminder %>%
  group_by(continent, year) %>%
  summarise(min_exp = min(life_exp),
            max_exp = max(life_exp),
            mean_exp = mean(life_exp),
            total_observations = n())
```

```
## `summarise()` regrouping output by 'continent' (override with `.groups` argument)
```

```
## # A tibble: 60 x 6
## # Groups:   continent [5]
##    continent  year min_exp max_exp mean_exp total_observations
##    <fct>     <int>   <dbl>   <dbl>    <dbl>              <int>
##  1 Africa     1952    30      52.7     39.1                 52
##  2 Africa     1957    31.6    58.1     41.3                 52
##  3 Africa     1962    32.8    60.2     43.3                 52
##  4 Africa     1967    34.1    61.6     45.3                 52
##  5 Africa     1972    35.4    64.3     47.5                 52
##  6 Africa     1977    36.8    67.1     49.6                 52
##  7 Africa     1982    38.4    69.9     51.6                 52
##  8 Africa     1987    39.9    71.9     53.3                 52
##  9 Africa     1992    23.6    73.6     53.6                 52
## 10 Africa     1997    36.1    74.8     53.6                 52
## # … with 50 more rows
```
…
**8. Use your results from the question above to plot population growth for the top five countries since 1952.**

```r
pop_change <- gapminder %>%
  group_by(country) %>%
  filter(year==2007|year==1952) %>%
  mutate(change_in_pop = pop - lag(pop, default = first(pop))) %>%
  arrange(desc(change_in_pop))
pop_change %>%
  select(country, change_in_pop)
```

```
## # A tibble: 284 x 2
## # Groups:   country [142]
##    country       change_in_pop
##    <fct>                 <int>
##  1 China             762419569
##  2 India             738396331
##  3 United States     143586947
##  4 Indonesia         141495000
##  5 Brazil            133408087
##  6 Pakistan          127924057
##  7 Bangladesh        103561480
##  8 Nigeria           101912068
##  9 Mexico             78556574
## 10 Philippines        68638596
## # … with 274 more rows
```
…
