…
```r
colleges
```

```
## # A tibble: 341 x 10
##    instnm city  stabbr zip   adm_rate sat_avg pcip26 costt4_a c150_4_pooled
##    <chr>  <chr> <chr>  <chr>    <dbl>   <dbl>  <dbl>    <dbl>         <dbl>
##  1 Gross… El C… CA     9202…       NA      NA 0.0016     7956        NA    
##  2 Colle… Visa… CA     9327…       NA      NA 0.0066     8109        NA    
##  3 Colle… San … CA     9440…       NA      NA 0.0038     8278        NA    
##  4 Ventu… Vent… CA     9300…       NA      NA 0.0035     8407        NA    
##  5 Oxnar… Oxna… CA     9303…       NA      NA 0.0085     8516        NA    
##  6 Moorp… Moor… CA     9302…       NA      NA 0.0151     8577        NA    
##  7 Skyli… San … CA     9406…       NA      NA 0          8580         0.233
##  8 Glend… Glen… CA     9120…       NA      NA 0.002      9181        NA    
##  9 Citru… Glen… CA     9174…       NA      NA 0.0021     9281        NA    
## 10 Fresn… Fres… CA     93741       NA      NA 0.0324     9370        NA    
## # … with 331 more rows, and 1 more variable: pftftug1_ef <dbl>
```
…
```
## # A tibble: 1 x 1
##   number_nas
##        <int>
## 1        949
```


```r
colleges
```

```
## # A tibble: 341 x 10
##    instnm city  stabbr zip   adm_rate sat_avg pcip26 costt4_a c150_4_pooled
##    <chr>  <chr> <chr>  <chr>    <dbl>   <dbl>  <dbl>    <dbl>         <dbl>
##  1 Gross… El C… CA     9202…       NA      NA 0.0016     7956        NA    
##  2 Colle… Visa… CA     9327…       NA      NA 0.0066     8109        NA    
##  3 Colle… San … CA     9440…       NA      NA 0.0038     8278        NA    
##  4 Ventu… Vent… CA     9300…       NA      NA 0.0035     8407        NA    
##  5 Oxnar… Oxna… CA     9303…       NA      NA 0.0085     8516        NA    
##  6 Moorp… Moor… CA     9302…       NA      NA 0.0151     8577        NA    
##  7 Skyli… San … CA     9406…       NA      NA 0          8580         0.233
##  8 Glend… Glen… CA     9120…       NA      NA 0.002      9181        NA    
##  9 Citru… Glen… CA     9174…       NA      NA 0.0021     9281        NA    
## 10 Fresn… Fres… CA     93741       NA      NA 0.0324     9370        NA    
## # … with 331 more rows, and 1 more variable: pftftug1_ef <dbl>
```
…
```
## `summarise()` ungrouping output (override with `.groups` argument)
```

```r
colleges_in_city
```

```
## # A tibble: 159 x 2
##    city          total_colleges
##    <chr>                  <int>
##  1 Los Angeles               24
##  2 San Diego                 18
##  3 San Francisco             15
##  4 Sacramento                10
##  5 Berkeley                   9
##  6 Oakland                    9
##  7 Claremont                  7
##  8 Pasadena                   6
##  9 Fresno                     5
## 10 Irvine                     5
## # … with 149 more rows
```
…
4. The column `COSTT4_A` is the annual cost of each institution. Which city has the highest average cost? Where is it located?


```r
city_costs <- 
  colleges %>%
  select(instnm, city, stabbr, zip, costt4_a) %>%
  arrange(desc(costt4_a))
city_costs
```

```
## # A tibble: 341 x 5
##    instnm                                  city        stabbr zip       costt4_a
##    <chr>                                   <chr>       <chr>  <chr>        <dbl>
##  1 Harvey Mudd College                     Claremont   CA     91711        69355
##  2 Southern California Institute of Archi… Los Angeles CA     90013-18…    67225
##  3 University of Southern California       Los Angeles CA     90089        67064
##  4 Occidental College                      Los Angeles CA     90041-33…    67046
##  5 Claremont McKenna College               Claremont   CA     91711-64…    66325
##  6 Pepperdine University                   Malibu      CA     90263        66152
##  7 Scripps College                         Claremont   CA     91711-39…    66060
##  8 Pitzer College                          Claremont   CA     91711-61…    65880
##  9 San Francisco Art Institute             San Franci… CA     94133-22…    65453
## 10 Pomona College                          Claremont   CA     91711-63…    64870
## # … with 331 more rows
```
…
```
## `summarise()` ungrouping output (override with `.groups` argument)
```

```r
city_total_costs
```

```
## # A tibble: 161 x 2
##    city                avg_costs
##    <chr>                   <dbl>
##  1 Claremont               66498
##  2 Malibu                  66152
##  3 Valencia                64686
##  4 Orange                  64501
##  5 Redlands                61542
##  6 Moraga                  61095
##  7 Atherton                56035
##  8 Thousand Oaks           54373
##  9 Rancho Palos Verdes     50758
## 10 La Verne                50603
## # … with 151 more rows
```
…
