…
```
[1] "moose"
```
The alces (common name: moose) is the largest deer.

**10. As measured by the data, which snake species has the smallest homerange? Show all of your work, please. Look this species up online and tell me about it!** **Snake is found in taxon column**    

```r
snake_finder <- filter(homerange, taxon == "snakes")
snake_finder #creating a new data frame only containing animals in the snake taxon
```

```
# A tibble: 41 x 24
   taxon common.name class order family genus species primarymethod N    
   <fct> <chr>       <chr> <fct> <chr>  <chr> <chr>   <chr>         <chr>
 1 snak… western wo… rept… squa… colub… carp… vermis  radiotag      1    
 2 snak… eastern wo… rept… squa… colub… carp… viridis radiotag      10   
 3 snak… racer       rept… squa… colub… colu… constr… telemetry     15   
 4 snak… yellow bel… rept… squa… colub… colu… constr… telemetry     12   
 5 snak… ringneck s… rept… squa… colub… diad… puncta… mark-recaptu… <NA> 
 6 snak… eastern in… rept… squa… colub… drym… couperi telemetry     1    
 7 snak… great plai… rept… squa… colub… elap… guttat… telemetry     12   
 8 snak… western ra… rept… squa… colub… elap… obsole… telemetry     18   
 9 snak… hognose sn… rept… squa… colub… hete… platir… telemetry     8    
10 snak… European w… rept… squa… colub… hier… viridi… telemetry     32   
# … with 31 more rows, and 15 more variables: mean.mass.g <dbl>,
#   log10.mass <dbl>, alternative.mass.reference <chr>, mean.hra.m2 <dbl>,
#   log10.hra <dbl>, hra.reference <chr>, realm <chr>, thermoregulation <chr>,
#   locomotion <chr>, trophic.guild <chr>, dimension <chr>, preymass <dbl>,
#   log10.preymass <dbl>, PPMR <dbl>, prey.size.reference <chr>
```
…
