…
2. Notice that we have some neutral superheros! Who are they?

```r
superhero_info %>%
  filter(alignment == "neutral") %>%
  select(name, alignment)
```

```
# A tibble: 24 x 2
   name         alignment
   <chr>        <chr>    
 1 Bizarro      neutral  
 2 Black Flash  neutral  
 3 Captain Cold neutral  
 4 Copycat      neutral  
 5 Deadpool     neutral  
 6 Deathstroke  neutral  
 7 Etrigan      neutral  
 8 Galactus     neutral  
 9 Gladiator    neutral  
10 Indigo       neutral  
# … with 14 more rows
```

## `superhero_info`
3. Let's say we are only interested in the variables name, alignment, and "race". How would you isolate these variables from `superhero_info`?

```r
superhero_info %>%
  select(name, alignment, race)
```

```
# A tibble: 734 x 3
   name          alignment race             
   <chr>         <chr>     <chr>            
 1 A-Bomb        good      Human            
 2 Abe Sapien    good      Icthyo Sapien    
 3 Abin Sur      good      Ungaran          
 4 Abomination   bad       Human / Radiation
 5 Abraxas       bad       Cosmic Entity    
 6 Absorbing Man bad       Human            
 7 Adam Monroe   good      <NA>             
 8 Adam Strange  good      Human            
 9 Agent 13      good      <NA>             
10 Agent Bob     good      Human            
# … with 724 more rows
```

## Not Human
4. List all of the superheros that are not human.

```r
superhero_info %>%
  filter(race != "Human") %>%
  select(name, race)
```

```
# A tibble: 222 x 2
   name         race             
   <chr>        <chr>            
 1 Abe Sapien   Icthyo Sapien    
 2 Abin Sur     Ungaran          
 3 Abomination  Human / Radiation
 4 Abraxas      Cosmic Entity    
 5 Ajax         Cyborg           
 6 Alien        Xenomorph XX121  
 7 Amazo        Android          
 8 Angel        Vampire          
 9 Angel Dust   Mutant           
10 Anti-Monitor God / Eternal    
# … with 212 more rows
```

## Good and Evil
5. Let's make two different data frames, one focused on the "good guys" and another focused on the "bad guys".

```r
good_guys <- filter(superhero_info, alignment == "good")
good_guys
```

```
# A tibble: 496 x 10
   name  gender eye_color race  hair_color height publisher skin_color alignment
   <chr> <chr>  <chr>     <chr> <chr>       <dbl> <chr>     <chr>      <chr>    
 1 A-Bo… Male   yellow    Human No Hair       203 Marvel C… <NA>       good     
 2 Abe … Male   blue      Icth… No Hair       191 Dark Hor… blue       good     
 3 Abin… Male   blue      Unga… No Hair       185 DC Comics red        good     
 4 Adam… Male   blue      <NA>  Blond          NA NBC - He… <NA>       good     
 5 Adam… Male   blue      Human Blond         185 DC Comics <NA>       good     
 6 Agen… Female blue      <NA>  Blond         173 Marvel C… <NA>       good     
 7 Agen… Male   brown     Human Brown         178 Marvel C… <NA>       good     
 8 Agen… Male   <NA>      <NA>  <NA>          191 Marvel C… <NA>       good     
 9 Alan… Male   blue      <NA>  Blond         180 DC Comics <NA>       good     
10 Alex… Male   <NA>      <NA>  <NA>           NA NBC - He… <NA>       good     
# … with 486 more rows, and 1 more variable: weight <dbl>
```

```r
bad_guys <- filter(superhero_info, alignment == "bad")
bad_guys
```

```
# A tibble: 207 x 10
   name  gender eye_color race  hair_color height publisher skin_color alignment
   <chr> <chr>  <chr>     <chr> <chr>       <dbl> <chr>     <chr>      <chr>    
 1 Abom… Male   green     Huma… No Hair       203 Marvel C… <NA>       bad      
 2 Abra… Male   blue      Cosm… Black          NA Marvel C… <NA>       bad      
 3 Abso… Male   blue      Human No Hair       193 Marvel C… <NA>       bad      
 4 Air-… Male   blue      <NA>  White         188 Marvel C… <NA>       bad      
 5 Ajax  Male   brown     Cybo… Black         193 Marvel C… <NA>       bad      
 6 Alex… Male   <NA>      Human <NA>           NA Wildstorm <NA>       bad      
 7 Alien Male   <NA>      Xeno… No Hair       244 Dark Hor… black      bad      
 8 Amazo Male   red       Andr… <NA>          257 DC Comics <NA>       bad      
 9 Ammo  Male   brown     Human Black         188 Marvel C… <NA>       bad      
10 Ange… Female <NA>      <NA>  <NA>           NA Image Co… <NA>       bad      
# … with 197 more rows, and 1 more variable: weight <dbl>
```
…
8. Among the bad guys, who are the male humans over 200 inches in height?

```r
bad_guys %>%
  filter(height > 200 & gender == "Male")
```

```
# A tibble: 22 x 10
   name  gender eye_color race  hair_color height publisher skin_color alignment
   <chr> <chr>  <chr>     <chr> <chr>       <dbl> <chr>     <chr>      <chr>    
 1 Abom… Male   green     Huma… No Hair       203 Marvel C… <NA>       bad      
 2 Alien Male   <NA>      Xeno… No Hair       244 Dark Hor… black      bad      
 3 Amazo Male   red       Andr… <NA>          257 DC Comics <NA>       bad      
 4 Apoc… Male   red       Muta… Black         213 Marvel C… grey       bad      
 5 Bane  Male   <NA>      Human <NA>          203 DC Comics <NA>       bad      
 6 Dark… Male   red       New … No Hair       267 DC Comics grey       bad      
 7 Doct… Male   brown     Human Brown         201 Marvel C… <NA>       bad      
 8 Doct… Male   brown     <NA>  Brown         201 Marvel C… <NA>       bad      
 9 Doom… Male   red       Alien White         244 DC Comics <NA>       bad      
10 Kill… Male   red       Meta… No Hair       244 DC Comics green      bad      
# … with 12 more rows, and 1 more variable: weight <dbl>
```
…
## Height to Weight Ratio
13. It's easy to be strong when you are heavy and tall, but who is heavy and short? Which superheros have the lowest height to weight ratio?

```r
superhero_info %>%
  mutate(height_to_weight_ratio = height/weight) %>%
  select(name, height, weight, height_to_weight_ratio) %>%
  arrange(height_to_weight_ratio)
```

```
# A tibble: 734 x 4
   name        height weight height_to_weight_ratio
   <chr>        <dbl>  <dbl>                  <dbl>
 1 Giganta       62.5    630                 0.0992
 2 Utgard-Loki   15.2     58                 0.262 
 3 Darkseid     267      817                 0.327 
 4 Juggernaut   287      855                 0.336 
 5 Red Hulk     213      630                 0.338 
 6 Sasquatch    305      900                 0.339 
 7 Hulk         244      630                 0.387 
 8 Bloodaxe     218      495                 0.440 
 9 Thanos       201      443                 0.454 
10 A-Bomb       203      441                 0.460 
# … with 724 more rows
```
…
14. How many superheros have a combination of accelerated healing, durability, and super strength?

```r
superhero_powers %>%
  filter(accelerated_healing == "TRUE" & durability == "TRUE" & super_strength == "TRUE") %>%
  select(hero_names, accelerated_healing, durability, super_strength)
```

```
# A tibble: 97 x 4
   hero_names   accelerated_healing durability super_strength
   <chr>        <lgl>               <lgl>      <lgl>         
 1 A-Bomb       TRUE                TRUE       TRUE          
 2 Abe Sapien   TRUE                TRUE       TRUE          
 3 Angel        TRUE                TRUE       TRUE          
 4 Anti-Monitor TRUE                TRUE       TRUE          
 5 Anti-Venom   TRUE                TRUE       TRUE          
 6 Aquaman      TRUE                TRUE       TRUE          
 7 Arachne      TRUE                TRUE       TRUE          
 8 Archangel    TRUE                TRUE       TRUE          
 9 Ardina       TRUE                TRUE       TRUE          
10 Ares         TRUE                TRUE       TRUE          
# … with 87 more rows
```
superhero_powers %>% 
  select(hero_names, contains("kinesis")) %>% 
  filter_all(any_vars(.== "TRUE"))

## `kinesis`
15. We are only interested in the superheros that do some kind of "kinesis". How would we isolate them from the `superhero_powers` data?

```r
superhero_powers %>%
  select(hero_names, contains("kinesis")) %>%
  filter_all(any_vars(.== "TRUE"))
```

```
# A tibble: 112 x 10
   hero_names cryokinesis electrokinesis telekinesis hyperkinesis hypnokinesis
   <chr>      <lgl>       <lgl>          <lgl>       <lgl>        <lgl>       
 1 Alan Scott FALSE       FALSE          FALSE       FALSE        TRUE        
 2 Amazo      TRUE        FALSE          FALSE       FALSE        FALSE       
 3 Apocalypse FALSE       FALSE          TRUE        FALSE        FALSE       
 4 Aqualad    TRUE        FALSE          FALSE       FALSE        FALSE       
 5 Beyonder   FALSE       FALSE          TRUE        FALSE        FALSE       
 6 Bizarro    TRUE        FALSE          FALSE       FALSE        TRUE        
 7 Black Abb… FALSE       FALSE          TRUE        FALSE        FALSE       
 8 Black Adam FALSE       FALSE          TRUE        FALSE        FALSE       
 9 Black Lig… FALSE       TRUE           FALSE       FALSE        FALSE       
10 Black Mam… FALSE       FALSE          FALSE       FALSE        TRUE        
# … with 102 more rows, and 4 more variables: thirstokinesis <lgl>,
#   biokinesis <lgl>, terrakinesis <lgl>, vitakinesis <lgl>
```
…
