…
```
# A tibble: 1 x 1
  distinct_countries
               <int>
1                203
```


```r
fisheries_tidy %>%
  distinct(country)
```

```
# A tibble: 203 x 1
   country            
   <fct>              
 1 Albania            
 2 Algeria            
 3 American Samoa     
 4 Angola             
 5 Anguilla           
 6 Antigua and Barbuda
 7 Argentina          
 8 Aruba              
 9 Australia          
10 Bahamas            
# ... with 193 more rows
```

4. Refocus the data only to include only: country, isscaap_taxonomic_group, asfis_species_name, asfis_species_number, year, catch.

```r
fisheries_tidy_new <- fisheries_tidy %>%
  select(country, isscaap_taxonomic_group, asfis_species_name, asfis_species_number, year, catch)
fisheries_tidy_new
```

```
# A tibble: 376,771 x 6
   country isscaap_taxonomic_g~ asfis_species_na~ asfis_species_num~  year catch
   <fct>   <chr>                <chr>             <fct>              <dbl> <dbl>
 1 Albania Sharks, rays, chima~ Squatinidae       10903XXXXX          1995    NA
 2 Albania Sharks, rays, chima~ Squatinidae       10903XXXXX          1996    53
 3 Albania Sharks, rays, chima~ Squatinidae       10903XXXXX          1997    20
 4 Albania Sharks, rays, chima~ Squatinidae       10903XXXXX          1998    31
 5 Albania Sharks, rays, chima~ Squatinidae       10903XXXXX          1999    30
 6 Albania Sharks, rays, chima~ Squatinidae       10903XXXXX          2000    30
 7 Albania Sharks, rays, chima~ Squatinidae       10903XXXXX          2001    16
 8 Albania Sharks, rays, chima~ Squatinidae       10903XXXXX          2002    79
 9 Albania Sharks, rays, chima~ Squatinidae       10903XXXXX          2003     1
10 Albania Sharks, rays, chima~ Squatinidae       10903XXXXX          2004     4
# ... with 376,761 more rows
```
…
6. Which country had the largest overall catch in the year 2000?

```r
fisheries_tidy_new %>%
  select(country, catch, year) %>%
  filter(year == 2000) %>%
  arrange(desc(catch))
```

```
# A tibble: 8,793 x 3
   country                  catch  year
   <fct>                    <dbl> <dbl>
 1 China                     9068  2000
 2 Peru                      5717  2000
 3 Russian Federation        5065  2000
 4 Viet Nam                  4945  2000
 5 Chile                     4299  2000
 6 China                     3288  2000
 7 China                     2782  2000
 8 United States of America  2438  2000
 9 China                     1234  2000
10 Philippines                999  2000
# ... with 8,783 more rows
```
China has the largest overall catch in 2000.
</div>

7. Which country caught the most sardines (_Sardina pilchardus_) between the years 1990-2000?

```r
fisheries_tidy_new %>%
  filter(asfis_species_name == "Sardina pilchardus" & year >= 1990 & year <= 2000) %>%
  group_by(country) %>%
  summarise(total_sardines = sum(catch, na.rm = T)) %>%
  arrange(desc(total_sardines))
```

```
# A tibble: 37 x 2
   country               total_sardines
   <fct>                          <dbl>
 1 Morocco                         7470
 2 Spain                           3507
 3 Russian Federation              1639
 4 Ukraine                         1030
 5 France                           966
 6 Portugal                         818
 7 Greece                           528
 8 Italy                            507
 9 Serbia and Montenegro            478
10 Denmark                          477
# ... with 27 more rows
```
…
9. Which species had the highest catch total between 2008-2012? (hint: Osteichthyes is not a species)

```r
fisheries_tidy_new %>%
  filter(year >= 2008 & year <= 2012) %>%
  group_by(asfis_species_name) %>%
  summarise(total_catch_per_species = sum(catch, na.rm = T)) %>%
  arrange(desc(total_catch_per_species))
```

```
# A tibble: 1,472 x 2
   asfis_species_name    total_catch_per_species
   <chr>                                   <dbl>
 1 Osteichthyes                           107808
 2 Theragra chalcogramma                   41075
 3 Engraulis ringens                       35523
 4 Katsuwonus pelamis                      32153
 5 Trichiurus lepturus                     30400
 6 Clupea harengus                         28527
 7 Thunnus albacares                       20119
 8 Scomber japonicus                       14723
 9 Gadus morhua                            13253
10 Thunnus alalunga                        12019
# ... with 1,462 more rows
```
Theragra chalcogramma has the highest total catch between 2008-2012.


10. Use the data to do at least one analysis of your choice.

```r
fisheries_tidy_new %>%
  filter(isscaap_taxonomic_group == "Shrimps, prawns" & year == 2006) %>%
  group_by(country) %>%
  summarise(tot_shrimp_prawn_catch = sum(catch, na.rm = T)) %>%
  arrange(desc(tot_shrimp_prawn_catch))
```

```
# A tibble: 107 x 2
   country                  tot_shrimp_prawn_catch
   <fct>                                     <dbl>
 1 China                                      2134
 2 India                                      1108
 3 Greenland                                   819
 4 Canada                                      623
 5 Spain                                       273
 6 Indonesia                                   270
 7 United States of America                    260
 8 Mexico                                      177
 9 Portugal                                    169
10 Thailand                                    169
# ... with 97 more rows
```
…
